{"total":21,"rows":[
	{"drugstoreId":"001","drugstore":"新兴药房","address":"xxx","violationsCount":"12"},
	{"drugstoreId":"002","drugstore":"神辳居药店(中心路)","address":"xxx","violationsCount":"15"},
	{"drugstoreId":"003","drugstore":"金鑫药店","address":"xxx","violationsCount":"17"},
	{"drugstoreId":"004","drugstore":"顺合堂药房(解放店)","address":"xxx","violationsCount":"11"},
	{"drugstoreId":"005","drugstore":"康民药店","address":"xxx","violationsCount":"14"},
	{"drugstoreId":"006","drugstore":"狮城百姓大药房","address":"xxx","violationsCount":"24"},
	{"drugstoreId":"007","drugstore":"西站爱心大药房","address":"xxx","violationsCount":"12"},
	{"drugstoreId":"008","drugstore":"益民药房","address":"xxx","violationsCount":"15"},
	{"drugstoreId":"009","drugstore":"新特药店(水月寺店)","address":"xxx","violationsCount":"23"},
	{"drugstoreId":"010","drugstore":"百草堂药店","address":"xxx","violationsCount":"18"},
	{"drugstoreId":"011","drugstore":"觉道庄药店","address":"xxx","violationsCount":"17"}
]}
