[{
	"id":1,
	"text":"沧州市",
	"children":[{
			"id":11,
			"text":"运河区"
		},{
			"id":12,
			"text":"新华区"
		},{
			"id":13,
			"text":"泊头市"
		},{
			"id":14,
			"text":"任丘市"
		},{
			"id":15,
			"text":"沧县"
		},{
			"id":16,
			"text":"青县"
		}]
}]
