{"total":28,"rows":[
	{"id":"1","date":"2010年","statisticsObject":"药品项目","totalPrescription":"20520","totalDetail":"20003","totalException":"45","totalReject":"10","prescriptionTotalAmount":"500000","exceptionTotalAmount":"20000","rejecttotalAmount":"4000","exceptionAmountProportion":"5%","rejectAmountProportion":"5%"},
	{"id":"2","date":"2011年","statisticsObject":"药品项目","totalPrescription":"20000","totalDetail":"24005","totalException":"58","totalReject":"15","prescriptionTotalAmount":"450000","exceptionTotalAmount":"21000","rejecttotalAmount":"4500","exceptionAmountProportion":"6%","rejectAmountProportion":"4%"},
	{"id":"3","date":"2012年","statisticsObject":"药品项目","totalPrescription":"21520","totalDetail":"20203","totalException":"40","totalReject":"12","prescriptionTotalAmount":"530000","exceptionTotalAmount":"22000","rejecttotalAmount":"4400","exceptionAmountProportion":"7%","rejectAmountProportion":"3%"},
	{"id":"4","date":"2013年","statisticsObject":"药品项目","totalPrescription":"22000","totalDetail":"25005","totalException":"50","totalReject":"14","prescriptionTotalAmount":"480000","exceptionTotalAmount":"25000","rejecttotalAmount":"4600","exceptionAmountProportion":"3%","rejectAmountProportion":"5%"}
]}
